0.002  0.0295362
0.004  0.0590314
0.006  0.0592239
0.008  0.117892
0.01  0.147255
0.012  0.0602533
0.014  0.0899957
0.016  0.119688
0.018  0.149328
0.02  0.293329
0.022  0.150789
0.024  0.237922
0.026  0.181402
0.028  0.2967
0.03  0.154535
0.032  0.126666
0.034  0.214394
0.036  0.413525
0.038  0.188178
0.04  0.581243
0.042  0.500467
0.044  0.474281
0.046  0.503294
0.048  0.586795
0.05  0.72278
0.052  0.198962
0.054  0.426729
0.056  0.700896
0.058  0.233104
0.06  0.596775
0.062  0.15091
0.064  0.600524
0.066  0.183954
0.068  0.711868
0.07  0.330559
0.072  0.925439
0.074  0.5837
0.076  0.22407
0.078  0.931567
0.08  0.617515
0.082  0.288361
0.084  1.09044
0.086  0.81065
0.088  0.518587
0.09  0.213728
0.092  1.14927
0.094  0.898353
0.096  0.637499
0.098  0.366322
0.1  0.0844247
0.002  0.0295362
0.004  0.0590314
0.006  0.0592239
0.008  0.117892
0.01  0.147255
0.012  0.0602533
0.014  0.0899957
0.016  0.119688
0.018  0.149328
0.02  0.293329
0.022  0.150789
0.024  0.237922
0.026  0.181402
0.028  0.2967
0.03  0.154535
0.032  0.126666
0.034  0.214394
0.036  0.413525
0.038  0.188178
0.04  0.581243
0.042  0.500467
0.044  0.474281
0.046  0.503294
0.048  0.586795
0.05  0.72278
0.052  0.198962
0.054  0.426729
0.056  0.700896
0.058  0.233104
0.06  0.596775
0.062  0.15091
0.064  0.600524
0.066  0.183954
0.068  0.711868
0.07  0.330559
0.072  0.925439
0.074  0.5837
0.076  0.22407
0.078  0.931567
0.08  0.617515
0.082  0.288361
0.084  1.09044
0.086  0.81065
0.088  0.518587
0.09  0.213728
0.092  1.14927
0.094  0.898353
0.096  0.637499
0.098  0.366322
0.1  0.0844247
0.002  0.0295362
0.004  0.0590314
0.006  0.0592239
0.008  0.117892
0.01  0.147255
0.012  0.0602533
0.014  0.0899957
0.016  0.119688
0.018  0.149328
0.02  0.293329
0.022  0.150789
0.024  0.237922
0.026  0.181402
0.028  0.2967
0.03  0.154535
0.032  0.126666
0.034  0.214394
0.036  0.413525
0.038  0.188178
0.04  0.581243
0.042  0.500467
0.044  0.474281
0.046  0.503294
0.048  0.586795
0.05  0.72278
0.052  0.198962
0.054  0.426729
0.056  0.700896
0.058  0.233104
0.06  0.596775
0.062  0.15091
0.064  0.600524
0.066  0.183954
0.068  0.711868
0.07  0.330559
0.072  0.925439
0.074  0.5837
0.076  0.22407
0.078  0.931567
0.08  0.617515
0.082  0.288361
0.084  1.09044
0.086  0.81065
0.088  0.518587
0.09  0.213728
0.092  1.14927
0.094  0.898353
0.096  0.637499
0.098  0.366322
0.1  0.0844247
0.002  0.0295362
0.004  0.0590314
0.006  0.0592239
0.008  0.117892
0.01  0.147255
0.012  0.0602533
0.014  0.0899957
0.016  0.119688
0.018  0.149328
0.02  0.293329
0.022  0.150789
0.024  0.237922
0.026  0.181402
0.028  0.2967
0.03  0.154535
0.032  0.126666
0.034  0.214394
0.036  0.413525
0.038  0.188178
0.04  0.581243
0.042  0.500467
0.044  0.474281
0.046  0.503294
0.048  0.586795
0.05  0.72278
0.052  0.198962
0.054  0.426729
0.056  0.700896
0.058  0.233104
0.06  0.596775
0.062  0.15091
0.064  0.600524
0.066  0.183954
0.068  0.711868
0.07  0.330559
0.072  0.925439
0.074  0.5837
0.076  0.22407
0.078  0.931567
0.08  0.617515
0.082  0.288361
0.084  1.09044
0.086  0.81065
0.088  0.518587
0.09  0.213728
0.092  1.14927
0.094  0.898353
0.096  0.637499
0.098  0.366322
0.1  0.0844247
